﻿<Cube xmlns:xsd="http://www.w3.org/2001/XMLSchema" xmlns:xsi="http://www.w3.org/2001/XMLSchema-instance" xmlns:ddl2="http://schemas.microsoft.com/analysisservices/2003/engine/2" xmlns:ddl2_2="http://schemas.microsoft.com/analysisservices/2003/engine/2/2" xmlns:ddl100_100="http://schemas.microsoft.com/analysisservices/2008/engine/100/100" xmlns:ddl200="http://schemas.microsoft.com/analysisservices/2010/engine/200" xmlns:ddl200_200="http://schemas.microsoft.com/analysisservices/2010/engine/200/200" xmlns:ddl300="http://schemas.microsoft.com/analysisservices/2011/engine/300" xmlns:ddl300_300="http://schemas.microsoft.com/analysisservices/2011/engine/300/300" xmlns:ddl400="http://schemas.microsoft.com/analysisservices/2012/engine/400" xmlns:ddl400_400="http://schemas.microsoft.com/analysisservices/2012/engine/400/400" xmlns:ddl500="http://schemas.microsoft.com/analysisservices/2013/engine/500" xmlns:ddl500_500="http://schemas.microsoft.com/analysisservices/2013/engine/500/500" xmlns:dwd="http://schemas.microsoft.com/DataWarehouse/Designer/1.0" dwd:design-time-name="a0af0c9c-f506-48e5-9d4c-0fa65b340202" xmlns="http://schemas.microsoft.com/analysisservices/2003/engine">
  <ID>Adventure Works DW</ID>
  <Name>Adventure Works DW</Name>
  <CreatedTimestamp>0001-01-01T00:00:00Z</CreatedTimestamp>
  <LastSchemaUpdate>0001-01-01T00:00:00Z</LastSchemaUpdate>
  <Annotations>
    <Annotation>
      <Name>http://schemas.microsoft.com/DataWarehouse/Designer/1.0:DiagramLayout</Name>
      <Value>
        <dds xmlns="">
          <diagram fontclsid="{0BE35203-8F91-11CE-9DE3-00AA004BB851}" mouseiconclsid="{0BE35204-8F91-11CE-9DE3-00AA004BB851}" defaultlayout="MSDDS.Rectilinear" defaultlineroute="MSDDS.Rectilinear" version="7" nextobject="18" scale="100" pagebreakanchorx="0" pagebreakanchory="0" pagebreaksizex="0" pagebreaksizey="0" scrollleft="3143" scrolltop="5786" gridx="150" gridy="150" marginx="5000" marginy="5000" zoom="75" x="8652" y="12700" backcolor="2434342" defaultpersistence="2" PrintPageNumbersMode="3" PrintMarginTop="0" PrintMarginBottom="635" PrintMarginLeft="0" PrintMarginRight="0" marqueeselectionmode="0" mousepointer="0" snaptogrid="0" autotypeannotation="1" showscrollbars="1" viewpagebreaks="0" donotforceconnectorsbehindshapes="1" backpictureclsid="{00000000-0000-0000-0000-000000000000}">
            <font>
              <ddsxmlobjectstreamwrapper binary="01000000900144420100065461686f6d61" />
            </font>
            <mouseicon>
              <ddsxmlobjectstreamwrapper binary="6c74000000000000" />
            </mouseicon>
          </diagram>
          <layoutmanager>
            <ddsxmlobj />
          </layoutmanager>
          <ddscontrol controlprogid="DdsShapes.DdsObjectManagedBridge" tooltip="FactInternetSales" left="6336" top="11100" logicalid="1" controlid="1" masterid="0" hint1="0" hint2="0" width="4101" height="5000" noresize="0" nomove="0" nodefaultattachpoints="0" autodrag="1" usedefaultiddshape="1" selectable="1" showselectionhandles="1" allownudging="1" isannotation="0" dontautolayout="0" groupcollapsed="0" tabstop="1" visible="1" snaptogrid="0">
            <control>
              <ddsxmlobjectstreaminitwrapper binary="000c00000510000088130000" />
            </control>
            <layoutobject>
              <ddsxmlobj>
                <property name="LogicalObject" value="dbo_FactInternetSales" vartype="8" />
              </ddsxmlobj>
            </layoutobject>
            <shape groupshapeid="0" groupnode="0" />
          </ddscontrol>
          <ddscontrol controlprogid="DdsShapes.DdsObjectManagedBridge" left="9798" top="2698" logicalid="2" controlid="2" masterid="0" hint1="0" hint2="0" width="4101" height="2302" noresize="0" nomove="0" nodefaultattachpoints="0" autodrag="1" usedefaultiddshape="1" selectable="1" showselectionhandles="1" allownudging="1" isannotation="0" dontautolayout="0" groupcollapsed="0" tabstop="1" visible="1" snaptogrid="0">
            <control>
              <ddsxmlobjectstreaminitwrapper binary="000c000005100000fe080000" />
            </control>
            <layoutobject>
              <ddsxmlobj>
                <property name="LogicalObject" value="dbo_FactInternetSalesReason" vartype="8" />
              </ddsxmlobj>
            </layoutobject>
            <shape groupshapeid="0" groupnode="0" />
          </ddscontrol>
          <ddscontrol controlprogid="DdsShapes.DdsObjectManagedBridge" left="9626" top="22200" logicalid="3" controlid="3" masterid="0" hint1="0" hint2="0" width="4498" height="3572" noresize="0" nomove="0" nodefaultattachpoints="0" autodrag="1" usedefaultiddshape="1" selectable="1" showselectionhandles="1" allownudging="1" isannotation="0" dontautolayout="0" groupcollapsed="0" tabstop="1" visible="1" snaptogrid="0">
            <control>
              <ddsxmlobjectstreaminitwrapper binary="000c000092110000f40d0000" />
            </control>
            <layoutobject>
              <ddsxmlobj>
                <property name="LogicalObject" value="dbo_DimSalesTerritory" vartype="8" />
              </ddsxmlobj>
            </layoutobject>
            <shape groupshapeid="0" groupnode="0" />
          </ddscontrol>
          <ddscontrol controlprogid="DdsShapes.DdsObjectManagedBridge" left="2874" top="0" logicalid="4" controlid="4" masterid="0" hint1="0" hint2="0" width="4524" height="5000" noresize="0" nomove="0" nodefaultattachpoints="0" autodrag="1" usedefaultiddshape="1" selectable="1" showselectionhandles="1" allownudging="1" isannotation="0" dontautolayout="0" groupcollapsed="0" tabstop="1" visible="1" snaptogrid="0">
            <control>
              <ddsxmlobjectstreaminitwrapper binary="000c0000ac11000088130000" />
            </control>
            <layoutobject>
              <ddsxmlobj>
                <property name="LogicalObject" value="dbo_DimDate" vartype="8" />
              </ddsxmlobj>
            </layoutobject>
            <shape groupshapeid="0" groupnode="0" />
          </ddscontrol>
          <ddscontrol controlprogid="DdsShapes.DdsObjectManagedBridge" tooltip="DimCustomer" left="12837" top="7400" logicalid="5" controlid="5" masterid="0" hint1="0" hint2="0" width="4207" height="5000" noresize="0" nomove="0" nodefaultattachpoints="0" autodrag="1" usedefaultiddshape="1" selectable="1" showselectionhandles="1" allownudging="1" isannotation="0" dontautolayout="0" groupcollapsed="0" tabstop="1" visible="1" snaptogrid="0">
            <control>
              <ddsxmlobjectstreaminitwrapper binary="000c00006f10000088130000" />
            </control>
            <layoutobject>
              <ddsxmlobj>
                <property name="LogicalObject" value="dbo_DimCustomer" vartype="8" />
              </ddsxmlobj>
            </layoutobject>
            <shape groupshapeid="0" groupnode="0" />
          </ddscontrol>
          <ddscontrol controlprogid="DdsShapes.DdsObjectManagedBridge" left="2649" top="22200" logicalid="6" controlid="6" masterid="0" hint1="0" hint2="0" width="4577" height="5000" noresize="0" nomove="0" nodefaultattachpoints="0" autodrag="1" usedefaultiddshape="1" selectable="1" showselectionhandles="1" allownudging="1" isannotation="0" dontautolayout="0" groupcollapsed="0" tabstop="1" visible="1" snaptogrid="0">
            <control>
              <ddsxmlobjectstreaminitwrapper binary="000c0000e111000088130000" />
            </control>
            <layoutobject>
              <ddsxmlobj>
                <property name="LogicalObject" value="dbo_DimPromotion" vartype="8" />
              </ddsxmlobj>
            </layoutobject>
            <shape groupshapeid="0" groupnode="0" />
          </ddscontrol>
          <ddscontrol controlprogid="DdsShapes.DdsObjectManagedBridge" tooltip="DimCurrency" left="20" top="12449" logicalid="7" controlid="7" masterid="0" hint1="0" hint2="0" width="3916" height="2302" noresize="0" nomove="0" nodefaultattachpoints="0" autodrag="1" usedefaultiddshape="1" selectable="1" showselectionhandles="1" allownudging="1" isannotation="0" dontautolayout="0" groupcollapsed="0" tabstop="1" visible="1" snaptogrid="0">
            <control>
              <ddsxmlobjectstreaminitwrapper binary="000c00004c0f0000fe080000" />
            </control>
            <layoutobject>
              <ddsxmlobj>
                <property name="LogicalObject" value="dbo_DimCurrency" vartype="8" />
              </ddsxmlobj>
            </layoutobject>
            <shape groupshapeid="0" groupnode="0" />
          </ddscontrol>
          <ddscontrol controlprogid="DdsShapes.DdsObjectManagedBridge" tooltip="DimProduct" left="12837" top="14800" logicalid="8" controlid="8" masterid="0" hint1="0" hint2="0" width="4366" height="5000" noresize="0" nomove="0" nodefaultattachpoints="0" autodrag="1" usedefaultiddshape="1" selectable="1" showselectionhandles="1" allownudging="1" isannotation="0" dontautolayout="0" groupcollapsed="0" tabstop="1" visible="1" snaptogrid="0">
            <control>
              <ddsxmlobjectstreaminitwrapper binary="000c00000e11000088130000" />
            </control>
            <layoutobject>
              <ddsxmlobj>
                <property name="LogicalObject" value="dbo_DimProduct" vartype="8" />
              </ddsxmlobj>
            </layoutobject>
            <shape groupshapeid="0" groupnode="0" />
          </ddscontrol>
          <ddscontrol controlprogid="MSDDS.Polyline" left="4538" top="15800" logicalid="9" controlid="9" masterid="0" hint1="0" hint2="0" width="3048" height="6900" noresize="0" nomove="0" nodefaultattachpoints="1" autodrag="0" usedefaultiddshape="0" selectable="1" showselectionhandles="0" allownudging="1" isannotation="0" dontautolayout="0" groupcollapsed="0" tabstop="1" visible="1" snaptogrid="0">
            <control>
              <ddsxmlobj>
                <polyline endtypedst="6" endtypesrc="3" usercolor="15856113" linestyle="0" linerender="1" customendtypedstid="0" customendtypesrcid="0" adornsvisible="1" />
              </ddsxmlobj>
            </control>
            <layoutobject>
              <ddsxmlobj>
                <property name="LogicalObject" value="dataSet.Relations[FK_FactInternetSales_DimPromotion]" vartype="8" />
                <property name="Virtual" value="0" vartype="11" />
                <property name="VisibleAP" value="0" vartype="3" />
              </ddsxmlobj>
            </layoutobject>
            <connector lineroutestyle="MSDDS.Rectilinear" sourceid="6" destid="1" sourceattachpoint="6" destattachpoint="3" segmenteditmode="0" bendpointeditmode="0" bendpointvisibility="0" relatedid="0" virtual="0">
              <point x="4937" y="22200" />
              <point x="4937" y="19150" />
              <point x="7286" y="19150" />
              <point x="7286" y="16100" />
            </connector>
          </ddscontrol>
          <ddscontrol controlprogid="MSDDS.Polyline" left="4737" top="4501" logicalid="10" controlid="10" masterid="0" hint1="0" hint2="0" width="3399" height="6899" noresize="0" nomove="0" nodefaultattachpoints="1" autodrag="0" usedefaultiddshape="0" selectable="1" showselectionhandles="0" allownudging="1" isannotation="0" dontautolayout="0" groupcollapsed="0" tabstop="1" visible="1" snaptogrid="0">
            <control>
              <ddsxmlobj>
                <polyline endtypedst="6" endtypesrc="3" usercolor="15856113" linestyle="0" linerender="1" customendtypedstid="0" customendtypesrcid="0" adornsvisible="1" />
              </ddsxmlobj>
            </control>
            <layoutobject>
              <ddsxmlobj>
                <property name="LogicalObject" value="dataSet.Relations[FK_FactInternetSales_DimDate]" vartype="8" />
                <property name="Virtual" value="0" vartype="11" />
                <property name="VisibleAP" value="0" vartype="3" />
              </ddsxmlobj>
            </layoutobject>
            <connector lineroutestyle="MSDDS.Rectilinear" sourceid="4" destid="1" sourceattachpoint="7" destattachpoint="4" segmenteditmode="0" bendpointeditmode="0" bendpointvisibility="0" relatedid="0" virtual="0">
              <point x="5136" y="5000" />
              <point x="5136" y="8050" />
              <point x="7836" y="8050" />
              <point x="7836" y="11100" />
            </connector>
          </ddscontrol>
          <ddscontrol controlprogid="MSDDS.Polyline" left="8636" top="15800" logicalid="11" controlid="11" masterid="0" hint1="0" hint2="0" width="3639" height="6900" noresize="0" nomove="0" nodefaultattachpoints="1" autodrag="0" usedefaultiddshape="0" selectable="1" showselectionhandles="0" allownudging="1" isannotation="0" dontautolayout="0" groupcollapsed="0" tabstop="1" visible="1" snaptogrid="0">
            <control>
              <ddsxmlobj>
                <polyline endtypedst="6" endtypesrc="3" usercolor="15856113" linestyle="0" linerender="1" customendtypedstid="0" customendtypesrcid="0" adornsvisible="1" />
              </ddsxmlobj>
            </control>
            <layoutobject>
              <ddsxmlobj>
                <property name="LogicalObject" value="dataSet.Relations[FK_FactInternetSales_DimSalesTerritory]" vartype="8" />
                <property name="Virtual" value="0" vartype="11" />
                <property name="VisibleAP" value="0" vartype="3" />
              </ddsxmlobj>
            </layoutobject>
            <connector lineroutestyle="MSDDS.Rectilinear" sourceid="3" destid="1" sourceattachpoint="6" destattachpoint="9" segmenteditmode="0" bendpointeditmode="0" bendpointvisibility="0" relatedid="0" virtual="0">
              <point x="11875" y="22200" />
              <point x="11875" y="19150" />
              <point x="8936" y="19150" />
              <point x="8936" y="16100" />
            </connector>
          </ddscontrol>
          <ddscontrol controlprogid="MSDDS.Polyline" left="10137" top="9501" logicalid="12" controlid="12" masterid="0" hint1="0" hint2="0" width="3000" height="3299" noresize="0" nomove="0" nodefaultattachpoints="1" autodrag="0" usedefaultiddshape="0" selectable="1" showselectionhandles="0" allownudging="1" isannotation="0" dontautolayout="0" groupcollapsed="0" tabstop="1" visible="1" snaptogrid="0">
            <control>
              <ddsxmlobj>
                <polyline endtypedst="6" endtypesrc="3" usercolor="15856113" linestyle="0" linerender="1" customendtypedstid="0" customendtypesrcid="0" adornsvisible="1" />
              </ddsxmlobj>
            </control>
            <layoutobject>
              <ddsxmlobj>
                <property name="LogicalObject" value="dataSet.Relations[FK_FactInternetSales_DimCustomer]" vartype="8" />
                <property name="Virtual" value="0" vartype="11" />
                <property name="VisibleAP" value="0" vartype="3" />
              </ddsxmlobj>
            </layoutobject>
            <connector lineroutestyle="MSDDS.Rectilinear" sourceid="5" destid="1" sourceattachpoint="22" destattachpoint="19" segmenteditmode="0" bendpointeditmode="0" bendpointvisibility="0" relatedid="0" virtual="0">
              <point x="12837" y="9900" />
              <point x="11637" y="9900" />
              <point x="11637" y="12500" />
              <point x="10437" y="12500" />
            </connector>
          </ddscontrol>
          <ddscontrol controlprogid="MSDDS.Polyline" left="3636" top="13201" logicalid="13" controlid="13" masterid="0" hint1="0" hint2="0" width="3000" height="799" noresize="0" nomove="0" nodefaultattachpoints="1" autodrag="0" usedefaultiddshape="0" selectable="1" showselectionhandles="0" allownudging="1" isannotation="0" dontautolayout="0" groupcollapsed="0" tabstop="1" visible="1" snaptogrid="0">
            <control>
              <ddsxmlobj>
                <polyline endtypedst="6" endtypesrc="3" usercolor="15856113" linestyle="0" linerender="1" customendtypedstid="0" customendtypesrcid="0" adornsvisible="1" />
              </ddsxmlobj>
            </control>
            <layoutobject>
              <ddsxmlobj>
                <property name="LogicalObject" value="dataSet.Relations[FK_FactInternetSales_DimCurrency]" vartype="8" />
                <property name="Virtual" value="0" vartype="11" />
                <property name="VisibleAP" value="0" vartype="3" />
              </ddsxmlobj>
            </layoutobject>
            <connector lineroutestyle="MSDDS.Rectilinear" sourceid="7" destid="1" sourceattachpoint="17" destattachpoint="22" segmenteditmode="0" bendpointeditmode="0" bendpointvisibility="0" relatedid="0" virtual="0">
              <point x="3936" y="13600" />
              <point x="6336" y="13600" />
            </connector>
          </ddscontrol>
          <ddscontrol controlprogid="MSDDS.Polyline" left="10137" top="13850" logicalid="14" controlid="14" masterid="0" hint1="0" hint2="0" width="3000" height="3850" noresize="0" nomove="0" nodefaultattachpoints="1" autodrag="0" usedefaultiddshape="0" selectable="1" showselectionhandles="0" allownudging="1" isannotation="0" dontautolayout="0" groupcollapsed="0" tabstop="1" visible="1" snaptogrid="0">
            <control>
              <ddsxmlobj>
                <polyline endtypedst="6" endtypesrc="3" usercolor="15856113" linestyle="0" linerender="1" customendtypedstid="0" customendtypesrcid="0" adornsvisible="1" />
              </ddsxmlobj>
            </control>
            <layoutobject>
              <ddsxmlobj>
                <property name="LogicalObject" value="dataSet.Relations[FK_FactInternetSales_DimProduct]" vartype="8" />
                <property name="Virtual" value="0" vartype="11" />
                <property name="VisibleAP" value="0" vartype="3" />
              </ddsxmlobj>
            </layoutobject>
            <connector lineroutestyle="MSDDS.Rectilinear" sourceid="8" destid="1" sourceattachpoint="22" destattachpoint="25" segmenteditmode="0" bendpointeditmode="0" bendpointvisibility="0" relatedid="0" virtual="0">
              <point x="12837" y="17300" />
              <point x="11637" y="17300" />
              <point x="11637" y="14150" />
              <point x="10437" y="14150" />
            </connector>
          </ddscontrol>
          <ddscontrol controlprogid="MSDDS.Polyline" left="6387" top="4501" logicalid="15" controlid="15" masterid="0" hint1="0" hint2="0" width="2299" height="6899" noresize="0" nomove="0" nodefaultattachpoints="1" autodrag="0" usedefaultiddshape="0" selectable="1" showselectionhandles="0" allownudging="1" isannotation="0" dontautolayout="0" groupcollapsed="0" tabstop="1" visible="1" snaptogrid="0">
            <control>
              <ddsxmlobj>
                <polyline endtypedst="6" endtypesrc="3" usercolor="15856113" linestyle="0" linerender="1" customendtypedstid="0" customendtypesrcid="0" adornsvisible="1" />
              </ddsxmlobj>
            </control>
            <layoutobject>
              <ddsxmlobj>
                <property name="LogicalObject" value="dataSet.Relations[FK_FactInternetSales_DimDate2]" vartype="8" />
                <property name="Virtual" value="0" vartype="11" />
                <property name="VisibleAP" value="0" vartype="3" />
              </ddsxmlobj>
            </layoutobject>
            <connector lineroutestyle="MSDDS.Rectilinear" sourceid="4" destid="1" sourceattachpoint="13" destattachpoint="6" segmenteditmode="0" bendpointeditmode="0" bendpointvisibility="0" relatedid="0" virtual="0">
              <point x="6786" y="5000" />
              <point x="6786" y="8050" />
              <point x="8386" y="8050" />
              <point x="8386" y="11100" />
            </connector>
          </ddscontrol>
          <ddscontrol controlprogid="MSDDS.Polyline" left="3087" top="4501" logicalid="16" controlid="16" masterid="0" hint1="0" hint2="0" width="4499" height="6899" noresize="0" nomove="0" nodefaultattachpoints="1" autodrag="0" usedefaultiddshape="0" selectable="1" showselectionhandles="0" allownudging="1" isannotation="0" dontautolayout="0" groupcollapsed="0" tabstop="1" visible="1" snaptogrid="0">
            <control>
              <ddsxmlobj>
                <polyline endtypedst="6" endtypesrc="3" usercolor="15856113" linestyle="0" linerender="1" customendtypedstid="0" customendtypesrcid="0" adornsvisible="1" />
              </ddsxmlobj>
            </control>
            <layoutobject>
              <ddsxmlobj>
                <property name="LogicalObject" value="dataSet.Relations[FK_FactInternetSales_DimDate1]" vartype="8" />
                <property name="Virtual" value="0" vartype="11" />
                <property name="VisibleAP" value="0" vartype="3" />
              </ddsxmlobj>
            </layoutobject>
            <connector lineroutestyle="MSDDS.Rectilinear" sourceid="4" destid="1" sourceattachpoint="1" destattachpoint="2" segmenteditmode="0" bendpointeditmode="0" bendpointvisibility="0" relatedid="0" virtual="0">
              <point x="3486" y="5000" />
              <point x="3486" y="8050" />
              <point x="7286" y="8050" />
              <point x="7286" y="11100" />
            </connector>
          </ddscontrol>
          <ddscontrol controlprogid="MSDDS.Polyline" left="8537" top="4700" logicalid="17" controlid="17" masterid="0" hint1="0" hint2="0" width="3611" height="6900" noresize="0" nomove="0" nodefaultattachpoints="1" autodrag="0" usedefaultiddshape="0" selectable="1" showselectionhandles="0" allownudging="1" isannotation="0" dontautolayout="0" groupcollapsed="0" tabstop="1" visible="1" snaptogrid="0">
            <control>
              <ddsxmlobj>
                <polyline endtypedst="6" endtypesrc="3" usercolor="15856113" linestyle="0" linerender="1" customendtypedstid="0" customendtypesrcid="0" adornsvisible="1" />
              </ddsxmlobj>
            </control>
            <layoutobject>
              <ddsxmlobj>
                <property name="LogicalObject" value="dataSet.Relations[FK_FactInternetSalesReason_FactInternetSales]" vartype="8" />
                <property name="Virtual" value="0" vartype="11" />
                <property name="VisibleAP" value="0" vartype="3" />
              </ddsxmlobj>
            </layoutobject>
            <connector lineroutestyle="MSDDS.Rectilinear" sourceid="1" destid="2" sourceattachpoint="8" destattachpoint="7" segmenteditmode="0" bendpointeditmode="0" bendpointvisibility="0" relatedid="0" virtual="0">
              <point x="8936" y="11100" />
              <point x="8936" y="8050" />
              <point x="11848" y="8050" />
              <point x="11848" y="5000" />
            </connector>
          </ddscontrol>
        </dds>
      </Value>
    </Annotation>
    <Annotation>
      <Name>http://schemas.microsoft.com/DataWarehouse/Designer/1.0:ShowFriendlyNames</Name>
      <Value>true</Value>
    </Annotation>
    <Annotation>
      <Name>http://schemas.microsoft.com/DataWarehouse/Designer/1.0:ShowRelationshipNames</Name>
      <Value>false</Value>
    </Annotation>
    <Annotation>
      <Name>http://schemas.microsoft.com/DataWarehouse/Designer/1.0:UseDiagramDefaultLayout</Name>
      <Value>true</Value>
    </Annotation>
    <Annotation>
      <Name>http://schemas.microsoft.com/DataWarehouse/Designer/1.0:DiagramViewPortLeft</Name>
      <Value>3143</Value>
    </Annotation>
    <Annotation>
      <Name>http://schemas.microsoft.com/DataWarehouse/Designer/1.0:DiagramViewPortTop</Name>
      <Value>5786</Value>
    </Annotation>
    <Annotation>
      <Name>http://schemas.microsoft.com/DataWarehouse/Designer/1.0:DiagramBoundingLeft</Name>
      <Value>20</Value>
    </Annotation>
    <Annotation>
      <Name>http://schemas.microsoft.com/DataWarehouse/Designer/1.0:DiagramBoundingTop</Name>
      <Value>0</Value>
    </Annotation>
    <Annotation>
      <Name>http://schemas.microsoft.com/DataWarehouse/Designer/1.0:DiagramZoom</Name>
      <Value>75</Value>
    </Annotation>
  </Annotations>
  <LastProcessed>0001-01-01T00:00:00Z</LastProcessed>
  <State>Unprocessed</State>
  <Dimensions>
    <Dimension dwd:design-time-name="fbbd0472-cfab-40fb-9b62-c61c7d6b9a29">
      <ID>Fact Internet Sales</ID>
      <Name>Fact Internet Sales</Name>
      <DimensionID>Fact Internet Sales</DimensionID>
      <Attributes>
        <Attribute dwd:design-time-name="f335e992-bdea-4c5f-b15c-3f2cf30b9c18">
          <AttributeID>Sales Order Number</AttributeID>
        </Attribute>
        <Attribute dwd:design-time-name="e5190dd0-1c03-4af5-95ac-f28d21a8c9df">
          <AttributeID>Promotion Key</AttributeID>
        </Attribute>
        <Attribute dwd:design-time-name="0e712220-a435-43f6-9acb-0535bc7ecfc0">
          <AttributeID>Order Date Key</AttributeID>
        </Attribute>
        <Attribute dwd:design-time-name="c8a38f45-3acb-4af3-9295-80cded5fb88b">
          <AttributeID>Sales Territory Key</AttributeID>
        </Attribute>
        <Attribute dwd:design-time-name="538dc082-c196-47e1-96b7-01c30c43eeef">
          <AttributeID>Customer Key</AttributeID>
        </Attribute>
        <Attribute dwd:design-time-name="92f9abb7-32b0-4cc4-bb9f-b0f0a696e35a">
          <AttributeID>Currency Key</AttributeID>
        </Attribute>
        <Attribute dwd:design-time-name="20781989-52bd-41ec-aeca-3af19c8d7977">
          <AttributeID>Product Key</AttributeID>
        </Attribute>
        <Attribute dwd:design-time-name="c5d471e6-b911-4965-82c6-1f4d988297ab">
          <AttributeID>Ship Date Key</AttributeID>
        </Attribute>
        <Attribute dwd:design-time-name="6764ce39-7986-4283-bdc4-a185c5dde16f">
          <AttributeID>Due Date Key</AttributeID>
        </Attribute>
        <Attribute dwd:design-time-name="ba659637-6530-4c9a-a024-1d767c56454d">
          <AttributeID>Revision Number</AttributeID>
        </Attribute>
        <Attribute dwd:design-time-name="69387b98-30f2-4a85-846c-8b29389a141f">
          <AttributeID>Order Quantity</AttributeID>
        </Attribute>
        <Attribute dwd:design-time-name="087049b7-6d38-4523-ba72-3d3a33c195a4">
          <AttributeID>Unit Price</AttributeID>
        </Attribute>
        <Attribute dwd:design-time-name="60b9b67c-25f1-4d17-96af-8a2320f87c20">
          <AttributeID>Extended Amount</AttributeID>
        </Attribute>
        <Attribute dwd:design-time-name="9a50b252-fee3-4f89-b56c-d54f7379684e">
          <AttributeID>Unit Price Discount Pct</AttributeID>
        </Attribute>
        <Attribute dwd:design-time-name="231aedd8-f2c3-4e23-b73d-407bf1d4d0ac">
          <AttributeID>Discount Amount</AttributeID>
        </Attribute>
        <Attribute dwd:design-time-name="c4e66a0a-44e8-4ba4-82e4-3d0bfbab6f1e">
          <AttributeID>Product Standard Cost</AttributeID>
        </Attribute>
        <Attribute dwd:design-time-name="62fa834e-1e6e-40a4-a76e-b53e8a09261d">
          <AttributeID>Total Product Cost</AttributeID>
        </Attribute>
        <Attribute dwd:design-time-name="9ce305af-a7f2-462a-97a0-553ecc4f25a6">
          <AttributeID>Sales Amount</AttributeID>
        </Attribute>
        <Attribute dwd:design-time-name="25bb69f9-c50a-4a88-abd4-ab20fb92ece7">
          <AttributeID>Tax Amt</AttributeID>
        </Attribute>
        <Attribute dwd:design-time-name="eae704c8-0d49-4924-b58a-b137e620c870">
          <AttributeID>Freight</AttributeID>
        </Attribute>
        <Attribute dwd:design-time-name="a7698ef0-6786-4364-b5e4-8809927e9d7b">
          <AttributeID>Carrier Tracking Number</AttributeID>
        </Attribute>
        <Attribute dwd:design-time-name="757d50b4-ce11-4ad6-9494-02c2117e64ea">
          <AttributeID>Customer PO Number</AttributeID>
        </Attribute>
        <Attribute dwd:design-time-name="24dbdf46-49dd-4786-89cd-00402c215db7">
          <AttributeID>Order Date</AttributeID>
        </Attribute>
        <Attribute dwd:design-time-name="2843f5b7-0139-45ac-901a-b75137361bbc">
          <AttributeID>Due Date</AttributeID>
        </Attribute>
        <Attribute dwd:design-time-name="6cd6536a-d5f5-49cd-98b1-3189695b69ed">
          <AttributeID>Ship Date</AttributeID>
        </Attribute>
      </Attributes>
    </Dimension>
    <Dimension dwd:design-time-name="5ce310c9-22c0-470d-a469-8dbb087cb1fb">
      <ID>Dim Promotion</ID>
      <Name>Dim Promotion</Name>
      <DimensionID>Dim Promotion</DimensionID>
      <Attributes>
        <Attribute dwd:design-time-name="b24509d0-d3ba-454d-8a55-4c0b215e9c95">
          <AttributeID>Promotion Key</AttributeID>
        </Attribute>
        <Attribute dwd:design-time-name="13c8e160-a8cb-48f7-ae7b-912eda775acb">
          <AttributeID>Promotion Alternate Key</AttributeID>
        </Attribute>
        <Attribute dwd:design-time-name="b552130e-9001-4928-a378-8749e0277520">
          <AttributeID>English Promotion Name</AttributeID>
        </Attribute>
        <Attribute dwd:design-time-name="79f02f5c-3e6e-4766-b4f7-e041292f08e0">
          <AttributeID>Discount Pct</AttributeID>
        </Attribute>
        <Attribute dwd:design-time-name="74cdb4ff-3411-4588-bfea-5cf4a287bf0e">
          <AttributeID>English Promotion Type</AttributeID>
        </Attribute>
        <Attribute dwd:design-time-name="7467eb9a-771f-452c-9f1b-2a7a1cb66d4f">
          <AttributeID>English Promotion Category</AttributeID>
        </Attribute>
        <Attribute dwd:design-time-name="135cdb94-809b-4ef4-b26f-0e9dbee56330">
          <AttributeID>Start Date</AttributeID>
        </Attribute>
        <Attribute dwd:design-time-name="9f42b3c9-9c0e-43b6-8a36-2ac5fb3566b5">
          <AttributeID>End Date</AttributeID>
        </Attribute>
        <Attribute dwd:design-time-name="6805a3f2-b0fd-4862-b082-46fdf6d88e27">
          <AttributeID>Min Qty</AttributeID>
        </Attribute>
        <Attribute dwd:design-time-name="513d2e24-ce36-4ff9-adf2-39dbc1ee99d7">
          <AttributeID>Max Qty</AttributeID>
        </Attribute>
      </Attributes>
    </Dimension>
    <Dimension dwd:design-time-name="54ee2bce-7959-47d6-b309-f40462058275">
      <ID>Order Date</ID>
      <Name>Order Date</Name>
      <DimensionID>Dim Date</DimensionID>
      <Attributes>
        <Attribute dwd:design-time-name="cb7ac7f4-d10e-414a-a8e7-c7060a8787af">
          <AttributeID>Date Key</AttributeID>
        </Attribute>
        <Attribute dwd:design-time-name="1da54648-a4b8-413b-b227-80fae255ca3d">
          <AttributeID>Full Date Alternate Key</AttributeID>
        </Attribute>
        <Attribute dwd:design-time-name="6e42e4ce-731a-49ec-8935-ddd9aa9fd384">
          <AttributeID>Day Number Of Week</AttributeID>
        </Attribute>
        <Attribute dwd:design-time-name="406ccc2f-9564-4617-ad43-506005e4e119">
          <AttributeID>English Day Name Of Week</AttributeID>
        </Attribute>
        <Attribute dwd:design-time-name="d0541ea9-f7b1-4c46-9102-0fb3ac111ec3">
          <AttributeID>Day Number Of Month</AttributeID>
        </Attribute>
        <Attribute dwd:design-time-name="d6f07415-d52a-474d-8db4-b50bb84b0558">
          <AttributeID>Day Number Of Year</AttributeID>
        </Attribute>
        <Attribute dwd:design-time-name="7e6cef29-a7b4-4627-8d41-5a290fbfa079">
          <AttributeID>Week Number Of Year</AttributeID>
        </Attribute>
        <Attribute dwd:design-time-name="c110ffa6-a8a1-4dce-bbde-6bd10dc94a75">
          <AttributeID>English Month Name</AttributeID>
        </Attribute>
        <Attribute dwd:design-time-name="846459c0-71e1-4b7a-9d49-55e5c82fd6d8">
          <AttributeID>Month Number Of Year</AttributeID>
        </Attribute>
        <Attribute dwd:design-time-name="59c74727-f445-4df0-b980-071c44291347">
          <AttributeID>Calendar Quarter</AttributeID>
        </Attribute>
        <Attribute dwd:design-time-name="e275806e-8f92-4330-adb2-5a5d270fa077">
          <AttributeID>Calendar Year</AttributeID>
        </Attribute>
        <Attribute dwd:design-time-name="01137178-9c63-4916-94b4-01a99307dcbf">
          <AttributeID>Calendar Semester</AttributeID>
        </Attribute>
        <Attribute dwd:design-time-name="e86c4560-b66a-440c-8ca3-df672e0082c8">
          <AttributeID>Fiscal Quarter</AttributeID>
        </Attribute>
        <Attribute dwd:design-time-name="71e22bf2-6051-43fe-b975-712c1c9f0561">
          <AttributeID>Fiscal Year</AttributeID>
        </Attribute>
        <Attribute dwd:design-time-name="6b99abcc-fc3c-4442-8884-7d553d93c608">
          <AttributeID>Fiscal Semester</AttributeID>
        </Attribute>
      </Attributes>
      <Hierarchies>
        <Hierarchy dwd:design-time-name="d34de3e8-ee6c-4b9b-8d36-5f02b703a9c5">
          <HierarchyID>Hierarchy</HierarchyID>
        </Hierarchy>
      </Hierarchies>
    </Dimension>
    <Dimension dwd:design-time-name="e3e5e50e-2818-4f9a-9122-9e449c91f485">
      <ID>Dim Sales Territory</ID>
      <Name>Dim Sales Territory</Name>
      <DimensionID>Dim Sales Territory</DimensionID>
      <Attributes>
        <Attribute dwd:design-time-name="3f44f5db-bfcf-4600-b565-27f222e66618">
          <AttributeID>Sales Territory Key</AttributeID>
        </Attribute>
        <Attribute dwd:design-time-name="02f17de9-1452-4f31-8750-1656c1b777db">
          <AttributeID>Sales Territory Alternate Key</AttributeID>
        </Attribute>
        <Attribute dwd:design-time-name="dbdafe08-d806-4787-a166-8f24be92cc50">
          <AttributeID>Sales Territory Region</AttributeID>
        </Attribute>
        <Attribute dwd:design-time-name="b34f8edc-411c-46c7-9f45-d42d0c7a142f">
          <AttributeID>Sales Territory Country</AttributeID>
        </Attribute>
        <Attribute dwd:design-time-name="6800dde8-5b8b-4c15-8383-15b4934a7c91">
          <AttributeID>Sales Territory Group</AttributeID>
        </Attribute>
      </Attributes>
    </Dimension>
    <Dimension dwd:design-time-name="3a4ab7b0-cf98-452d-8c37-de9d24420a79">
      <ID>Dim Customer</ID>
      <Name>Dim Customer</Name>
      <DimensionID>Dim Customer</DimensionID>
      <Attributes>
        <Attribute dwd:design-time-name="ca3856de-f44c-4c9e-8408-974409c7e397">
          <AttributeID>Customer Key</AttributeID>
        </Attribute>
        <Attribute dwd:design-time-name="103a6b98-6132-4eea-8f12-78ce469a097a">
          <AttributeID>Geography Key</AttributeID>
        </Attribute>
        <Attribute dwd:design-time-name="f0eb332f-9ff5-4133-a46f-27c565a44b30">
          <AttributeID>Customer Alternate Key</AttributeID>
        </Attribute>
        <Attribute dwd:design-time-name="d94a392e-dfc7-445d-bc75-12284fc73ee7">
          <AttributeID>Title</AttributeID>
        </Attribute>
        <Attribute dwd:design-time-name="90202989-0d2c-4ee6-b44f-17e01ab71218">
          <AttributeID>First Name</AttributeID>
        </Attribute>
        <Attribute dwd:design-time-name="3d5b72d3-48e1-4c81-ba16-b12ed6aa43fb">
          <AttributeID>Middle Name</AttributeID>
        </Attribute>
        <Attribute dwd:design-time-name="1c8ae836-6978-4097-abde-9a4b9b5d5ba3">
          <AttributeID>Last Name</AttributeID>
        </Attribute>
        <Attribute dwd:design-time-name="52622afc-c49f-46d7-a3b7-aa06a66eda50">
          <AttributeID>Name Style</AttributeID>
        </Attribute>
        <Attribute dwd:design-time-name="361e1172-73cb-4cd1-b519-6130773537b8">
          <AttributeID>Birth Date</AttributeID>
        </Attribute>
        <Attribute dwd:design-time-name="8152f7a7-e252-498d-816b-437987840255">
          <AttributeID>Marital Status</AttributeID>
        </Attribute>
        <Attribute dwd:design-time-name="0ef5839d-b859-4c8a-8642-b9f6e0f64af1">
          <AttributeID>Suffix</AttributeID>
        </Attribute>
        <Attribute dwd:design-time-name="5c635af2-0331-4745-b70c-e98ccbbc70d3">
          <AttributeID>Gender</AttributeID>
        </Attribute>
        <Attribute dwd:design-time-name="50f3fc2b-c92d-486b-a2da-97aaac4109eb">
          <AttributeID>Email Address</AttributeID>
        </Attribute>
        <Attribute dwd:design-time-name="b1c7c429-9b4a-4c60-8d07-f0c15d97e8b7">
          <AttributeID>Yearly Income</AttributeID>
        </Attribute>
        <Attribute dwd:design-time-name="f64ca1dc-1fb5-4db2-8647-d419ff5b120b">
          <AttributeID>Total Children</AttributeID>
        </Attribute>
        <Attribute dwd:design-time-name="b2b8fc4b-7297-496e-a074-59ff0c3a4445">
          <AttributeID>Number Children At Home</AttributeID>
        </Attribute>
        <Attribute dwd:design-time-name="d83df446-b56b-40fa-85cc-5a2171f6bd9d">
          <AttributeID>English Education</AttributeID>
        </Attribute>
        <Attribute dwd:design-time-name="963f45e3-24aa-4aaf-ac0e-16ed6c865803">
          <AttributeID>English Occupation</AttributeID>
        </Attribute>
        <Attribute dwd:design-time-name="558ea598-1ee5-4386-b58d-d06e20b7b148">
          <AttributeID>House Owner Flag</AttributeID>
        </Attribute>
        <Attribute dwd:design-time-name="9364fac4-48d5-4d9a-aa4e-2978d8958f04">
          <AttributeID>Number Cars Owned</AttributeID>
        </Attribute>
        <Attribute dwd:design-time-name="a39af613-0d87-4b0a-b87b-0610a0c4cfbe">
          <AttributeID>Address Line1</AttributeID>
        </Attribute>
        <Attribute dwd:design-time-name="83bd5fd4-c32e-4d8d-9f4f-c3cc4a129c39">
          <AttributeID>Address Line2</AttributeID>
        </Attribute>
        <Attribute dwd:design-time-name="17f11a35-96d5-4bc8-b1e4-ec56c8c45097">
          <AttributeID>Phone</AttributeID>
        </Attribute>
        <Attribute dwd:design-time-name="293d473c-3cee-4a71-a20f-ac0e5604552c">
          <AttributeID>Date First Purchase</AttributeID>
        </Attribute>
        <Attribute dwd:design-time-name="6e9c0d6f-b251-48b9-a340-7119501b5655">
          <AttributeID>Commute Distance</AttributeID>
        </Attribute>
      </Attributes>
    </Dimension>
    <Dimension dwd:design-time-name="710e0642-6232-4108-851a-313490c2d66d">
      <ID>Dim Currency</ID>
      <Name>Dim Currency</Name>
      <DimensionID>Dim Currency</DimensionID>
      <Attributes>
        <Attribute dwd:design-time-name="d8bedbd5-7de9-409c-bf1a-c751f867bddd">
          <AttributeID>Currency Key</AttributeID>
        </Attribute>
        <Attribute dwd:design-time-name="a4817866-0079-49ad-badf-0807d24b5d81">
          <AttributeID>Currency Alternate Key</AttributeID>
        </Attribute>
        <Attribute dwd:design-time-name="5e338c75-ecbe-4f57-94da-24475a21b548">
          <AttributeID>Currency Name</AttributeID>
        </Attribute>
      </Attributes>
    </Dimension>
    <Dimension dwd:design-time-name="3a679343-e91d-44d7-b35b-c136c556162d">
      <ID>Dim Product</ID>
      <Name>Dim Product</Name>
      <DimensionID>Dim Product</DimensionID>
      <Attributes>
        <Attribute dwd:design-time-name="ffe08c45-3c19-4e9e-bedd-a29f101921a5">
          <AttributeID>Product Key</AttributeID>
        </Attribute>
        <Attribute dwd:design-time-name="46dafc34-be52-45b6-a98d-b349f4a2f389">
          <AttributeID>Product Alternate Key</AttributeID>
        </Attribute>
        <Attribute dwd:design-time-name="54f10cb6-b55b-4f3a-9ccf-c986b0869c92">
          <AttributeID>Product Subcategory Key</AttributeID>
        </Attribute>
        <Attribute dwd:design-time-name="69df3872-2b62-429c-8cf0-2da08a813764">
          <AttributeID>Weight Unit Measure Code</AttributeID>
        </Attribute>
        <Attribute dwd:design-time-name="01e187b5-14c5-469a-91f7-0f772306c9ad">
          <AttributeID>Size Unit Measure Code</AttributeID>
        </Attribute>
        <Attribute dwd:design-time-name="585738e4-db22-4142-b54b-9deb75693e12">
          <AttributeID>English Product Name</AttributeID>
        </Attribute>
        <Attribute dwd:design-time-name="94e2dd5c-2e24-4e51-a78a-50fce9217c0b">
          <AttributeID>Standard Cost</AttributeID>
        </Attribute>
        <Attribute dwd:design-time-name="32a8695d-ac29-465c-8570-1634769282c4">
          <AttributeID>Finished Goods Flag</AttributeID>
        </Attribute>
        <Attribute dwd:design-time-name="dd7da0ee-c500-4d65-bc09-d3668a5c399f">
          <AttributeID>Color</AttributeID>
        </Attribute>
        <Attribute dwd:design-time-name="84bf4074-7bfb-4a47-82b9-3f426035ce2f">
          <AttributeID>Safety Stock Level</AttributeID>
        </Attribute>
        <Attribute dwd:design-time-name="ee3d7ba8-16f2-44b9-960b-f49a75ca5be7">
          <AttributeID>Reorder Point</AttributeID>
        </Attribute>
        <Attribute dwd:design-time-name="3d3285b1-ebd9-413d-a111-9af3640a2b15">
          <AttributeID>List Price</AttributeID>
        </Attribute>
        <Attribute dwd:design-time-name="b1f3d508-c174-4165-8bcf-213cf1c3241d">
          <AttributeID>Size</AttributeID>
        </Attribute>
        <Attribute dwd:design-time-name="c7723c52-5e2e-4d8d-9eda-10f142aaba50">
          <AttributeID>Size Range</AttributeID>
        </Attribute>
        <Attribute dwd:design-time-name="1f3e3155-e370-42f2-b913-d1de813edf90">
          <AttributeID>Weight</AttributeID>
        </Attribute>
        <Attribute dwd:design-time-name="df953ad5-b687-4d03-89f3-33dfdc9d3ec8">
          <AttributeID>Days To Manufacture</AttributeID>
        </Attribute>
        <Attribute dwd:design-time-name="02d05c8a-1b33-4794-b304-70071629a72e">
          <AttributeID>Product Line</AttributeID>
        </Attribute>
        <Attribute dwd:design-time-name="03c88286-9bd8-4daa-8002-2f293ef966ef">
          <AttributeID>Dealer Price</AttributeID>
        </Attribute>
        <Attribute dwd:design-time-name="6f9fc8d9-a991-4ff2-ae81-d444430c386d">
          <AttributeID>Class</AttributeID>
        </Attribute>
        <Attribute dwd:design-time-name="f688b7cf-d6b8-4421-b87a-1f40015e09ff">
          <AttributeID>Style</AttributeID>
        </Attribute>
        <Attribute dwd:design-time-name="ec90147b-093a-4796-afef-75e40dacbd0b">
          <AttributeID>Model Name</AttributeID>
        </Attribute>
        <Attribute dwd:design-time-name="91b9de5c-e51c-4041-a342-d81bb2c45ab6">
          <AttributeID>English Description</AttributeID>
        </Attribute>
        <Attribute dwd:design-time-name="8a5e4fac-7509-40bc-971d-a551cdba7767">
          <AttributeID>Start Date</AttributeID>
        </Attribute>
        <Attribute dwd:design-time-name="f2bf2378-b745-43b2-9153-1ef7668b0000">
          <AttributeID>End Date</AttributeID>
        </Attribute>
        <Attribute dwd:design-time-name="ff9aaaad-4823-439c-ba4a-8de634267700">
          <AttributeID>Status</AttributeID>
        </Attribute>
      </Attributes>
    </Dimension>
    <Dimension dwd:design-time-name="8252d35b-d54c-43df-b393-c631a176cdc0">
      <ID>Ship Date</ID>
      <Name>Ship Date</Name>
      <DimensionID>Dim Date</DimensionID>
      <Attributes>
        <Attribute dwd:design-time-name="cef2f501-c1bc-40f3-a3be-f4e503e85232">
          <AttributeID>Date Key</AttributeID>
        </Attribute>
        <Attribute dwd:design-time-name="81c0e242-d05a-49e8-8f21-05378c5600ce">
          <AttributeID>Full Date Alternate Key</AttributeID>
        </Attribute>
        <Attribute dwd:design-time-name="4be2c70e-e008-4c96-a55b-0c3b37848105">
          <AttributeID>Day Number Of Week</AttributeID>
        </Attribute>
        <Attribute dwd:design-time-name="9ef5c843-dfc9-4432-b31f-5b189e611008">
          <AttributeID>English Day Name Of Week</AttributeID>
        </Attribute>
        <Attribute dwd:design-time-name="bf43d127-7d49-4343-935b-f5f7e0acde01">
          <AttributeID>Day Number Of Month</AttributeID>
        </Attribute>
        <Attribute dwd:design-time-name="d8c757bf-dab9-450a-9a50-1ccacdf33f4f">
          <AttributeID>Day Number Of Year</AttributeID>
        </Attribute>
        <Attribute dwd:design-time-name="81f78136-d0a4-43f1-aa8b-0785bdc93cd5">
          <AttributeID>Week Number Of Year</AttributeID>
        </Attribute>
        <Attribute dwd:design-time-name="08c6dfb2-208f-4280-b93f-c0bff06e6a89">
          <AttributeID>English Month Name</AttributeID>
        </Attribute>
        <Attribute dwd:design-time-name="095d224d-7899-42b0-8ff6-9c3b2da92ffa">
          <AttributeID>Month Number Of Year</AttributeID>
        </Attribute>
        <Attribute dwd:design-time-name="3c54a29f-bf8e-4228-83d4-911005052679">
          <AttributeID>Calendar Quarter</AttributeID>
        </Attribute>
        <Attribute dwd:design-time-name="df9ad2ff-4464-4d11-8891-25217914972a">
          <AttributeID>Calendar Year</AttributeID>
        </Attribute>
        <Attribute dwd:design-time-name="a750591c-ff56-4d8f-bbac-25d343c3304f">
          <AttributeID>Calendar Semester</AttributeID>
        </Attribute>
        <Attribute dwd:design-time-name="75c42114-04cf-46c9-af01-5d795d68fb6e">
          <AttributeID>Fiscal Quarter</AttributeID>
        </Attribute>
        <Attribute dwd:design-time-name="74d6b36c-a5d0-400c-a4b1-d933d107a8cb">
          <AttributeID>Fiscal Year</AttributeID>
        </Attribute>
        <Attribute dwd:design-time-name="29766a56-d6d2-4c34-a083-53890ef17c93">
          <AttributeID>Fiscal Semester</AttributeID>
        </Attribute>
      </Attributes>
      <Hierarchies>
        <Hierarchy dwd:design-time-name="8ac11378-1487-4b43-8dc2-e4784906f2e0">
          <HierarchyID>Hierarchy</HierarchyID>
        </Hierarchy>
      </Hierarchies>
    </Dimension>
    <Dimension dwd:design-time-name="8494677a-3083-4b41-8b20-ba61d20bcfec">
      <ID>Due Date</ID>
      <Name>Due Date</Name>
      <DimensionID>Dim Date</DimensionID>
      <Attributes>
        <Attribute dwd:design-time-name="1e411da4-f3e6-459d-9a4b-7bb5dc5c7017">
          <AttributeID>Date Key</AttributeID>
        </Attribute>
        <Attribute dwd:design-time-name="eeb559a8-6e31-4c7e-9685-1a9bdc60bd82">
          <AttributeID>Full Date Alternate Key</AttributeID>
        </Attribute>
        <Attribute dwd:design-time-name="cdee1cf4-90be-4fbd-8bc4-5aa1bd0fc2e2">
          <AttributeID>Day Number Of Week</AttributeID>
        </Attribute>
        <Attribute dwd:design-time-name="9e751ef2-7484-42bc-bfeb-25b74b4c54bb">
          <AttributeID>English Day Name Of Week</AttributeID>
        </Attribute>
        <Attribute dwd:design-time-name="8d3e642e-6576-45a8-a754-64d3460e74ca">
          <AttributeID>Day Number Of Month</AttributeID>
        </Attribute>
        <Attribute dwd:design-time-name="cc428618-e9e3-46e5-b854-ffa01501995e">
          <AttributeID>Day Number Of Year</AttributeID>
        </Attribute>
        <Attribute dwd:design-time-name="539a3957-1186-4d20-a159-fa9160d0a274">
          <AttributeID>Week Number Of Year</AttributeID>
        </Attribute>
        <Attribute dwd:design-time-name="42e67928-2069-4450-93fa-62f55efc5ed9">
          <AttributeID>English Month Name</AttributeID>
        </Attribute>
        <Attribute dwd:design-time-name="5bb53a8c-353e-432b-840c-7ab21b7ec55b">
          <AttributeID>Month Number Of Year</AttributeID>
        </Attribute>
        <Attribute dwd:design-time-name="10175da8-feda-4fcf-bc5e-95237089de80">
          <AttributeID>Calendar Quarter</AttributeID>
        </Attribute>
        <Attribute dwd:design-time-name="ab5d8beb-052e-4f43-a34a-4781ce7f06e5">
          <AttributeID>Calendar Year</AttributeID>
        </Attribute>
        <Attribute dwd:design-time-name="49fd37ed-54a3-48f6-8296-a3529575f4d1">
          <AttributeID>Calendar Semester</AttributeID>
        </Attribute>
        <Attribute dwd:design-time-name="6a8083c9-28b0-491f-a553-cecb2d81b305">
          <AttributeID>Fiscal Quarter</AttributeID>
        </Attribute>
        <Attribute dwd:design-time-name="847939d6-9594-4b33-b492-4783a7f71f6f">
          <AttributeID>Fiscal Year</AttributeID>
        </Attribute>
        <Attribute dwd:design-time-name="69d8a3dd-193d-43b3-bdf1-17ccd5176411">
          <AttributeID>Fiscal Semester</AttributeID>
        </Attribute>
      </Attributes>
      <Hierarchies>
        <Hierarchy dwd:design-time-name="44d26195-573c-405e-88f0-e6f808dca170">
          <HierarchyID>Hierarchy</HierarchyID>
        </Hierarchy>
      </Hierarchies>
    </Dimension>
    <Dimension dwd:design-time-name="a6922e4e-2361-4a50-98f6-47360c284517">
      <ID>Fact Internet Sales - Order Date</ID>
      <Name>Fact Internet Sales - Order Date</Name>
      <DimensionID>Dim Date</DimensionID>
      <Attributes>
        <Attribute dwd:design-time-name="5645ebe6-d083-43fe-979f-45fef31a953f">
          <AttributeID>Date Key</AttributeID>
        </Attribute>
        <Attribute dwd:design-time-name="fb72b8ec-98eb-43e1-b6bd-f6b8d8766c2c">
          <AttributeID>Full Date Alternate Key</AttributeID>
        </Attribute>
        <Attribute dwd:design-time-name="cd564622-140f-449c-a1e4-c283f83b4569">
          <AttributeID>Day Number Of Week</AttributeID>
        </Attribute>
        <Attribute dwd:design-time-name="93d56d71-8a66-45db-8c33-8807e41eeb7f">
          <AttributeID>English Day Name Of Week</AttributeID>
        </Attribute>
        <Attribute dwd:design-time-name="8d40192c-4e81-41c4-b2d7-b80ecc872fc8">
          <AttributeID>Day Number Of Month</AttributeID>
        </Attribute>
        <Attribute dwd:design-time-name="f7ff5e6c-769f-4545-9c95-140ce61084ad">
          <AttributeID>Day Number Of Year</AttributeID>
        </Attribute>
        <Attribute dwd:design-time-name="d35cb179-6451-4f17-aae3-4081a008955c">
          <AttributeID>Week Number Of Year</AttributeID>
        </Attribute>
        <Attribute dwd:design-time-name="f500206b-ecc8-4750-8456-ace36c3e1e10">
          <AttributeID>English Month Name</AttributeID>
        </Attribute>
        <Attribute dwd:design-time-name="dffade7a-787b-4426-9ff2-2696dc0cf851">
          <AttributeID>Month Number Of Year</AttributeID>
        </Attribute>
        <Attribute dwd:design-time-name="202d1326-89af-4790-bba7-db5859607b79">
          <AttributeID>Calendar Quarter</AttributeID>
        </Attribute>
        <Attribute dwd:design-time-name="a082e7bd-fbca-4871-9956-675214595afe">
          <AttributeID>Calendar Year</AttributeID>
        </Attribute>
        <Attribute dwd:design-time-name="55a63ad5-6c23-47fd-be87-5a79d6f4a9b0">
          <AttributeID>Calendar Semester</AttributeID>
        </Attribute>
        <Attribute dwd:design-time-name="914e2b61-24e8-435c-94b2-f4e607230b6c">
          <AttributeID>Fiscal Quarter</AttributeID>
        </Attribute>
        <Attribute dwd:design-time-name="fd5d47c1-d590-4583-88d4-29e878d1aa8c">
          <AttributeID>Fiscal Year</AttributeID>
        </Attribute>
        <Attribute dwd:design-time-name="9736fd75-276f-4a5d-8e62-bd041c5e8ae7">
          <AttributeID>Fiscal Semester</AttributeID>
        </Attribute>
      </Attributes>
      <Hierarchies>
        <Hierarchy dwd:design-time-name="df723ecd-3959-44ba-969a-58871378c890">
          <HierarchyID>Hierarchy</HierarchyID>
        </Hierarchy>
      </Hierarchies>
    </Dimension>
    <Dimension dwd:design-time-name="233adee5-8488-49ea-8100-176288f9d204">
      <ID>Fact Internet Sales - Ship Date</ID>
      <Name>Fact Internet Sales - Ship Date</Name>
      <DimensionID>Dim Date</DimensionID>
      <Attributes>
        <Attribute dwd:design-time-name="51acfd85-0413-4166-9705-ba37ad2f7c6d">
          <AttributeID>Date Key</AttributeID>
        </Attribute>
        <Attribute dwd:design-time-name="b95bd098-63c9-44fa-aec7-08aacaff1e5a">
          <AttributeID>Full Date Alternate Key</AttributeID>
        </Attribute>
        <Attribute dwd:design-time-name="1dfe2428-7dfe-44fd-9b8d-dc15aa9eed55">
          <AttributeID>Day Number Of Week</AttributeID>
        </Attribute>
        <Attribute dwd:design-time-name="3f442d77-3e62-4092-87fa-9fd4e8ab4484">
          <AttributeID>English Day Name Of Week</AttributeID>
        </Attribute>
        <Attribute dwd:design-time-name="0d54f53f-d1e5-40fd-8f97-dcdfa25f8682">
          <AttributeID>Day Number Of Month</AttributeID>
        </Attribute>
        <Attribute dwd:design-time-name="b701d4d8-b026-4ec1-9244-56523e4c89d6">
          <AttributeID>Day Number Of Year</AttributeID>
        </Attribute>
        <Attribute dwd:design-time-name="28f791a8-3c5c-447f-a639-dcfa15953b8e">
          <AttributeID>Week Number Of Year</AttributeID>
        </Attribute>
        <Attribute dwd:design-time-name="ec623cda-993f-4d98-978f-125a5decf6a5">
          <AttributeID>English Month Name</AttributeID>
        </Attribute>
        <Attribute dwd:design-time-name="08fd590e-0368-40af-a95c-275b6bed48ed">
          <AttributeID>Month Number Of Year</AttributeID>
        </Attribute>
        <Attribute dwd:design-time-name="55e1d75b-1422-4861-ba7c-5e364c2ec2bd">
          <AttributeID>Calendar Quarter</AttributeID>
        </Attribute>
        <Attribute dwd:design-time-name="8f7e60a9-0fb4-4b83-abac-1e9a50175ed9">
          <AttributeID>Calendar Year</AttributeID>
        </Attribute>
        <Attribute dwd:design-time-name="1d4b9505-e95f-4e27-b810-3bfe220924c4">
          <AttributeID>Calendar Semester</AttributeID>
        </Attribute>
        <Attribute dwd:design-time-name="4571b2ab-039c-4dad-ad82-cb918b80e3c8">
          <AttributeID>Fiscal Quarter</AttributeID>
        </Attribute>
        <Attribute dwd:design-time-name="e407504d-a89a-4eaf-a6ad-283dac499587">
          <AttributeID>Fiscal Year</AttributeID>
        </Attribute>
        <Attribute dwd:design-time-name="fc6e1b66-79f0-4975-870e-a2494c8af8ff">
          <AttributeID>Fiscal Semester</AttributeID>
        </Attribute>
      </Attributes>
      <Hierarchies>
        <Hierarchy dwd:design-time-name="5acd4039-e103-4716-8f77-ec41ab7412c1">
          <HierarchyID>Hierarchy</HierarchyID>
        </Hierarchy>
      </Hierarchies>
    </Dimension>
    <Dimension dwd:design-time-name="03b44448-832e-4aed-ada0-dace04ddc41e">
      <ID>Fact Internet Sales - Due Date</ID>
      <Name>Fact Internet Sales - Due Date</Name>
      <DimensionID>Dim Date</DimensionID>
      <Attributes>
        <Attribute dwd:design-time-name="a2b1d755-f4d0-4ecf-931e-8bb4484ade91">
          <AttributeID>Date Key</AttributeID>
        </Attribute>
        <Attribute dwd:design-time-name="54567608-1b90-43a2-bff8-a3307c16f7fe">
          <AttributeID>Full Date Alternate Key</AttributeID>
        </Attribute>
        <Attribute dwd:design-time-name="4d950254-01fd-4840-a740-3e45f061e82c">
          <AttributeID>Day Number Of Week</AttributeID>
        </Attribute>
        <Attribute dwd:design-time-name="9ead9e5a-4217-4d6f-ae80-8a4ad8e519be">
          <AttributeID>English Day Name Of Week</AttributeID>
        </Attribute>
        <Attribute dwd:design-time-name="db915cb3-d796-408f-9766-9e6ee6676df7">
          <AttributeID>Day Number Of Month</AttributeID>
        </Attribute>
        <Attribute dwd:design-time-name="0770b54b-aec2-45bb-8055-4530f07956a7">
          <AttributeID>Day Number Of Year</AttributeID>
        </Attribute>
        <Attribute dwd:design-time-name="273a163d-dd5c-45d4-8901-ebeac25b3e31">
          <AttributeID>Week Number Of Year</AttributeID>
        </Attribute>
        <Attribute dwd:design-time-name="51428266-6b82-4381-88c3-a4856156c011">
          <AttributeID>English Month Name</AttributeID>
        </Attribute>
        <Attribute dwd:design-time-name="4d9ec6ef-31e3-478c-b016-472156e8afbe">
          <AttributeID>Month Number Of Year</AttributeID>
        </Attribute>
        <Attribute dwd:design-time-name="c65ca908-5763-40da-b89d-c1769236ecfc">
          <AttributeID>Calendar Quarter</AttributeID>
        </Attribute>
        <Attribute dwd:design-time-name="695db2e0-65a6-4876-a2f2-1ef976ce330c">
          <AttributeID>Calendar Year</AttributeID>
        </Attribute>
        <Attribute dwd:design-time-name="f8662a6a-efe0-47ba-8481-bd6c827fc88f">
          <AttributeID>Calendar Semester</AttributeID>
        </Attribute>
        <Attribute dwd:design-time-name="b6181ac2-11db-4a9c-92ec-6d3a402de236">
          <AttributeID>Fiscal Quarter</AttributeID>
        </Attribute>
        <Attribute dwd:design-time-name="c871270b-e236-486a-943a-60cb115b1c48">
          <AttributeID>Fiscal Year</AttributeID>
        </Attribute>
        <Attribute dwd:design-time-name="182aa19b-fece-468b-8594-e41a364a020e">
          <AttributeID>Fiscal Semester</AttributeID>
        </Attribute>
      </Attributes>
      <Hierarchies>
        <Hierarchy dwd:design-time-name="fe0792d3-9a3b-4047-b110-49cf14bb86ff">
          <HierarchyID>Hierarchy</HierarchyID>
        </Hierarchy>
      </Hierarchies>
    </Dimension>
  </Dimensions>
  <MeasureGroups>
    <MeasureGroup dwd:design-time-name="beaa39ba-b01a-4e91-ad11-624eb06f30a6">
      <ID>Fact Internet Sales</ID>
      <Name>Fact Internet Sales</Name>
      <CreatedTimestamp>0001-01-01T00:00:00Z</CreatedTimestamp>
      <LastSchemaUpdate>0001-01-01T00:00:00Z</LastSchemaUpdate>
      <LastProcessed>0001-01-01T00:00:00Z</LastProcessed>
      <State>Unprocessed</State>
      <Measures>
        <Measure dwd:design-time-name="4808de1e-a0f5-47de-9067-1f2cdf8d2480">
          <ID>Revision Number</ID>
          <Name>Revision Number</Name>
          <Source dwd:design-time-name="8c6b1461-0717-4923-8122-677ba6530dfe">
            <DataType>UnsignedInt</DataType>
            <Source xsi:type="ColumnBinding" dwd:design-time-name="1e773f15-8169-4892-b713-da1e9f57299d">
              <TableID>dbo_FactInternetSales</TableID>
              <ColumnID>RevisionNumber</ColumnID>
            </Source>
          </Source>
        </Measure>
        <Measure dwd:design-time-name="3eb03dae-4aba-4618-b733-d9879c0c2a1b">
          <ID>Order Quantity</ID>
          <Name>Order Quantity</Name>
          <Source dwd:design-time-name="5297613f-2a28-43a5-b9a2-922e5d296d1d">
            <DataType>Integer</DataType>
            <Source xsi:type="ColumnBinding" dwd:design-time-name="29eeaf2c-b07d-4fba-949a-3eb7a3fc1bcf">
              <TableID>dbo_FactInternetSales</TableID>
              <ColumnID>OrderQuantity</ColumnID>
            </Source>
          </Source>
        </Measure>
        <Measure dwd:design-time-name="883af6e6-0fb0-46e3-a69a-0c13b7b8f910">
          <ID>Unit Price</ID>
          <Name>Unit Price</Name>
          <Source dwd:design-time-name="ea78af0b-0ff4-45de-8853-a257314ae42c">
            <DataType>Double</DataType>
            <Source xsi:type="ColumnBinding" dwd:design-time-name="3f4b2093-71e2-4dde-a717-4d6345b52dba">
              <TableID>dbo_FactInternetSales</TableID>
              <ColumnID>UnitPrice</ColumnID>
            </Source>
          </Source>
        </Measure>
        <Measure dwd:design-time-name="84b3c970-3fdb-4ac8-90bd-3201bf188ca3">
          <ID>Extended Amount</ID>
          <Name>Extended Amount</Name>
          <Source dwd:design-time-name="393dad33-71ff-473b-995a-dcb4c73429b6">
            <DataType>Double</DataType>
            <Source xsi:type="ColumnBinding" dwd:design-time-name="5671f52f-8760-4706-9719-072dcf0937b3">
              <TableID>dbo_FactInternetSales</TableID>
              <ColumnID>ExtendedAmount</ColumnID>
            </Source>
          </Source>
        </Measure>
        <Measure dwd:design-time-name="03ba11da-ebc3-40c8-8e87-d3d04c5bf7b2">
          <ID>Unit Price Discount Pct</ID>
          <Name>Unit Price Discount Pct</Name>
          <Source dwd:design-time-name="8806548c-c309-4773-9424-49c9689e602f">
            <DataType>Double</DataType>
            <Source xsi:type="ColumnBinding" dwd:design-time-name="3ad1a48c-26b1-4125-b70c-89912900633b">
              <TableID>dbo_FactInternetSales</TableID>
              <ColumnID>UnitPriceDiscountPct</ColumnID>
            </Source>
          </Source>
        </Measure>
        <Measure dwd:design-time-name="af6638f1-d3ed-42d2-a417-5124a9752ca1">
          <ID>Discount Amount</ID>
          <Name>Discount Amount</Name>
          <Source dwd:design-time-name="28ed8cf2-9149-4981-ab44-3277d72964d7">
            <DataType>Double</DataType>
            <Source xsi:type="ColumnBinding" dwd:design-time-name="6fe45d43-7b0c-4381-94d2-12f4a09b9a5a">
              <TableID>dbo_FactInternetSales</TableID>
              <ColumnID>DiscountAmount</ColumnID>
            </Source>
          </Source>
        </Measure>
        <Measure dwd:design-time-name="32278b74-7773-4582-ab95-6a092722fddc">
          <ID>Product Standard Cost</ID>
          <Name>Product Standard Cost</Name>
          <Source dwd:design-time-name="e5686776-19c6-4ff9-b92a-6b4ac7a64b5f">
            <DataType>Double</DataType>
            <Source xsi:type="ColumnBinding" dwd:design-time-name="c02fbe21-c1e0-4839-b71f-25af56e69f0d">
              <TableID>dbo_FactInternetSales</TableID>
              <ColumnID>ProductStandardCost</ColumnID>
            </Source>
          </Source>
        </Measure>
        <Measure dwd:design-time-name="bf6dd896-065b-499b-87f3-d2fd2071aded">
          <ID>Total Product Cost</ID>
          <Name>Total Product Cost</Name>
          <Source dwd:design-time-name="489042b1-c39f-42b7-9b1e-866f38c5dd5e">
            <DataType>Double</DataType>
            <Source xsi:type="ColumnBinding" dwd:design-time-name="d9b496b8-2cf0-4bae-82a4-55cc71697836">
              <TableID>dbo_FactInternetSales</TableID>
              <ColumnID>TotalProductCost</ColumnID>
            </Source>
          </Source>
        </Measure>
        <Measure dwd:design-time-name="483503b9-2983-4f6e-9434-c7e4628d96a5">
          <ID>Sales Amount</ID>
          <Name>Sales Amount</Name>
          <Source dwd:design-time-name="6760a87c-801d-4582-87b9-004cd3d8a799">
            <DataType>Double</DataType>
            <Source xsi:type="ColumnBinding" dwd:design-time-name="9982fa7a-8c70-46bc-9cbe-0bca3183fd7f">
              <TableID>dbo_FactInternetSales</TableID>
              <ColumnID>SalesAmount</ColumnID>
            </Source>
          </Source>
        </Measure>
        <Measure dwd:design-time-name="6f2e9b53-f10e-4fe9-b089-36b1b233bcab">
          <ID>Tax Amt</ID>
          <Name>Tax Amt</Name>
          <Source dwd:design-time-name="ab2d6505-0a47-425a-b6ac-e040620b3f6f">
            <DataType>Double</DataType>
            <Source xsi:type="ColumnBinding" dwd:design-time-name="0523a48a-ae8a-4d0b-9d5c-8425568c1dbc">
              <TableID>dbo_FactInternetSales</TableID>
              <ColumnID>TaxAmt</ColumnID>
            </Source>
          </Source>
        </Measure>
        <Measure dwd:design-time-name="ba019c7d-6e95-4c07-ae23-0e6a437b8b63">
          <ID>Freight</ID>
          <Name>Freight</Name>
          <Source dwd:design-time-name="2a7e056f-9be7-467d-bf6c-35a64cccb7ab">
            <DataType>Double</DataType>
            <Source xsi:type="ColumnBinding" dwd:design-time-name="d92d47a2-c7e1-4f33-ba1f-1b9ca7906a56">
              <TableID>dbo_FactInternetSales</TableID>
              <ColumnID>Freight</ColumnID>
            </Source>
          </Source>
        </Measure>
        <Measure dwd:design-time-name="a3fcde3d-e39d-4e71-8df6-812bc32f70e3">
          <ID>Fact Internet Sales Count</ID>
          <Name>Fact Internet Sales Count</Name>
          <AggregateFunction>Count</AggregateFunction>
          <Source dwd:design-time-name="8f978598-85f8-40f8-b6bc-9cc385d0297a">
            <DataType>Integer</DataType>
            <DataSize>4</DataSize>
            <Source xsi:type="RowBinding" dwd:design-time-name="e4c2f2b7-f1a7-48dd-aab6-353dcb1c7afd">
              <TableID>dbo_FactInternetSales</TableID>
            </Source>
          </Source>
        </Measure>
      </Measures>
      <StorageMode>Molap</StorageMode>
      <ProcessingMode>Regular</ProcessingMode>
      <Dimensions>
        <Dimension xsi:type="DegenerateMeasureGroupDimension" dwd:design-time-name="7054847c-ede7-4778-ac49-f3cc3ec97c17">
          <CubeDimensionID>Fact Internet Sales</CubeDimensionID>
          <Attributes>
            <Attribute dwd:design-time-name="ad471595-89d1-45f7-a43b-e9e3dcec091e">
              <AttributeID>Sales Order Number</AttributeID>
              <KeyColumns>
                <KeyColumn dwd:design-time-name="913382a3-4b56-47c7-84ed-f4be1b460d95">
                  <DataType>WChar</DataType>
                  <DataSize>20</DataSize>
                  <Source xsi:type="ColumnBinding" dwd:design-time-name="96fd2301-c0d5-455d-8181-114d7bfa9791">
                    <TableID>dbo_FactInternetSales</TableID>
                    <ColumnID>SalesOrderNumber</ColumnID>
                  </Source>
                </KeyColumn>
                <KeyColumn dwd:design-time-name="e7b72b74-e404-489c-8994-cd0ed37234ec">
                  <DataType>UnsignedTinyInt</DataType>
                  <Source xsi:type="ColumnBinding" dwd:design-time-name="491bc493-b62b-4362-9d70-dec59c74add0">
                    <TableID>dbo_FactInternetSales</TableID>
                    <ColumnID>SalesOrderLineNumber</ColumnID>
                  </Source>
                </KeyColumn>
              </KeyColumns>
              <Type>Granularity</Type>
            </Attribute>
          </Attributes>
        </Dimension>
        <Dimension xsi:type="RegularMeasureGroupDimension" dwd:design-time-name="eb4b386d-9086-45ff-bd01-b62cd0f57b50">
          <CubeDimensionID>Dim Promotion</CubeDimensionID>
          <Attributes>
            <Attribute dwd:design-time-name="ec521a9f-f319-460f-8469-49ba741c7379">
              <AttributeID>Promotion Key</AttributeID>
              <KeyColumns>
                <KeyColumn dwd:design-time-name="79815376-59ef-4d59-97fe-82e78cae1678">
                  <DataType>Integer</DataType>
                  <Source xsi:type="ColumnBinding" dwd:design-time-name="f53ba862-a691-4b3f-aea4-0285969e8853">
                    <TableID>dbo_FactInternetSales</TableID>
                    <ColumnID>PromotionKey</ColumnID>
                  </Source>
                </KeyColumn>
              </KeyColumns>
              <Type>Granularity</Type>
            </Attribute>
          </Attributes>
        </Dimension>
        <Dimension xsi:type="RegularMeasureGroupDimension" dwd:design-time-name="aed2c79e-8199-4017-b54c-0792d5a00552">
          <CubeDimensionID>Order Date</CubeDimensionID>
          <Attributes>
            <Attribute dwd:design-time-name="3162a568-bf92-424f-8568-be096e827521">
              <AttributeID>Date Key</AttributeID>
              <KeyColumns>
                <KeyColumn dwd:design-time-name="c8476db7-4822-4379-a108-c6aad02f579e">
                  <DataType>Integer</DataType>
                  <Source xsi:type="ColumnBinding" dwd:design-time-name="b60305d3-daee-4546-84fc-ac686e6d601c">
                    <TableID>dbo_FactInternetSales</TableID>
                    <ColumnID>OrderDateKey</ColumnID>
                  </Source>
                </KeyColumn>
              </KeyColumns>
              <Type>Granularity</Type>
            </Attribute>
          </Attributes>
        </Dimension>
        <Dimension xsi:type="RegularMeasureGroupDimension" dwd:design-time-name="e589680c-ba59-4811-be48-2d5c1a4cf005">
          <CubeDimensionID>Dim Sales Territory</CubeDimensionID>
          <Attributes>
            <Attribute dwd:design-time-name="623892d5-d697-4254-a9d6-6aac89145f3d">
              <AttributeID>Sales Territory Key</AttributeID>
              <KeyColumns>
                <KeyColumn dwd:design-time-name="a7286890-cfcd-4472-9cc2-4b637b346554">
                  <DataType>Integer</DataType>
                  <Source xsi:type="ColumnBinding" dwd:design-time-name="d4d1684f-34f0-40c4-9f82-0b5c4937c2d9">
                    <TableID>dbo_FactInternetSales</TableID>
                    <ColumnID>SalesTerritoryKey</ColumnID>
                  </Source>
                </KeyColumn>
              </KeyColumns>
              <Type>Granularity</Type>
            </Attribute>
          </Attributes>
        </Dimension>
        <Dimension xsi:type="RegularMeasureGroupDimension" dwd:design-time-name="67193487-4b64-48cd-baeb-eae6fb352868">
          <CubeDimensionID>Dim Customer</CubeDimensionID>
          <Attributes>
            <Attribute dwd:design-time-name="ecb460b6-26b0-4542-9547-5281e01e92d7">
              <AttributeID>Customer Key</AttributeID>
              <KeyColumns>
                <KeyColumn dwd:design-time-name="0c87caeb-5505-4608-b7b2-55ab07cd7b13">
                  <DataType>Integer</DataType>
                  <Source xsi:type="ColumnBinding" dwd:design-time-name="60d0c752-a756-40f9-bb44-de9b247c2c5a">
                    <TableID>dbo_FactInternetSales</TableID>
                    <ColumnID>CustomerKey</ColumnID>
                  </Source>
                </KeyColumn>
              </KeyColumns>
              <Type>Granularity</Type>
            </Attribute>
          </Attributes>
        </Dimension>
        <Dimension xsi:type="RegularMeasureGroupDimension" dwd:design-time-name="c3a9d4da-0d46-446e-85c6-2aa33d3b8e36">
          <CubeDimensionID>Dim Currency</CubeDimensionID>
          <Attributes>
            <Attribute dwd:design-time-name="b19df958-9841-495b-a8e5-7a2baf0d3930">
              <AttributeID>Currency Key</AttributeID>
              <KeyColumns>
                <KeyColumn dwd:design-time-name="d1762f20-cac7-445a-85d7-312ebe6a75ba">
                  <DataType>Integer</DataType>
                  <Source xsi:type="ColumnBinding" dwd:design-time-name="68e4a2ee-1cc5-416b-996a-833834b5a044">
                    <TableID>dbo_FactInternetSales</TableID>
                    <ColumnID>CurrencyKey</ColumnID>
                  </Source>
                </KeyColumn>
              </KeyColumns>
              <Type>Granularity</Type>
            </Attribute>
          </Attributes>
        </Dimension>
        <Dimension xsi:type="RegularMeasureGroupDimension" dwd:design-time-name="0408083a-1d56-44e5-bf21-8078807d76fb">
          <CubeDimensionID>Dim Product</CubeDimensionID>
          <Attributes>
            <Attribute dwd:design-time-name="e5472ced-3b17-4af1-8661-a7dde110d333">
              <AttributeID>Product Key</AttributeID>
              <KeyColumns>
                <KeyColumn dwd:design-time-name="d55e384e-2449-433e-bafb-9ae262b806a6">
                  <DataType>Integer</DataType>
                  <Source xsi:type="ColumnBinding" dwd:design-time-name="a83e304f-1497-420c-9e13-64984df25b26">
                    <TableID>dbo_FactInternetSales</TableID>
                    <ColumnID>ProductKey</ColumnID>
                  </Source>
                </KeyColumn>
              </KeyColumns>
              <Type>Granularity</Type>
            </Attribute>
          </Attributes>
        </Dimension>
        <Dimension xsi:type="RegularMeasureGroupDimension" dwd:design-time-name="ad858bd4-6085-405b-ac80-0fde906fe61f">
          <CubeDimensionID>Ship Date</CubeDimensionID>
          <Attributes>
            <Attribute dwd:design-time-name="0dfa712a-93c1-436b-9fa7-cf93d3b4ff01">
              <AttributeID>Date Key</AttributeID>
              <KeyColumns>
                <KeyColumn dwd:design-time-name="aff0d79a-a8f4-44fb-b487-4262141a9c7b">
                  <DataType>Integer</DataType>
                  <Source xsi:type="ColumnBinding" dwd:design-time-name="bad64c16-1251-491d-b213-0c53a7acc222">
                    <TableID>dbo_FactInternetSales</TableID>
                    <ColumnID>ShipDateKey</ColumnID>
                  </Source>
                </KeyColumn>
              </KeyColumns>
              <Type>Granularity</Type>
            </Attribute>
          </Attributes>
        </Dimension>
        <Dimension xsi:type="RegularMeasureGroupDimension" dwd:design-time-name="0ac625fd-8aef-49d5-8b85-734c8035c4a5">
          <CubeDimensionID>Due Date</CubeDimensionID>
          <Attributes>
            <Attribute dwd:design-time-name="588eb131-7fe0-4894-a30a-21b7baab93ec">
              <AttributeID>Date Key</AttributeID>
              <KeyColumns>
                <KeyColumn dwd:design-time-name="b5c593cd-f725-400f-aca6-c2637acdac03">
                  <DataType>Integer</DataType>
                  <Source xsi:type="ColumnBinding" dwd:design-time-name="ad45c5df-2ab9-4c7d-924e-bcb1faaa3d6c">
                    <TableID>dbo_FactInternetSales</TableID>
                    <ColumnID>DueDateKey</ColumnID>
                  </Source>
                </KeyColumn>
              </KeyColumns>
              <Type>Granularity</Type>
            </Attribute>
          </Attributes>
        </Dimension>
      </Dimensions>
      <Partitions />
    </MeasureGroup>
    <MeasureGroup dwd:design-time-name="cc2ad301-bab5-486d-abd7-f2f5accc3294">
      <ID>Fact Internet Sales Reason</ID>
      <Name>Fact Internet Sales Reason</Name>
      <CreatedTimestamp>0001-01-01T00:00:00Z</CreatedTimestamp>
      <LastSchemaUpdate>0001-01-01T00:00:00Z</LastSchemaUpdate>
      <LastProcessed>0001-01-01T00:00:00Z</LastProcessed>
      <State>Unprocessed</State>
      <Measures>
        <Measure dwd:design-time-name="4ec1e33c-a4da-4684-bdb9-d774cb4ea346">
          <ID>Fact Internet Sales Reason Count</ID>
          <Name>Fact Internet Sales Reason Count</Name>
          <AggregateFunction>Count</AggregateFunction>
          <Source dwd:design-time-name="0a15121f-9eae-4e8f-83e1-6c882b1c6705">
            <DataType>Integer</DataType>
            <DataSize>4</DataSize>
            <Source xsi:type="RowBinding" dwd:design-time-name="27e8ca87-7cc8-484a-9ee6-1e85df99bea5">
              <TableID>dbo_FactInternetSalesReason</TableID>
            </Source>
          </Source>
        </Measure>
      </Measures>
      <StorageMode>Molap</StorageMode>
      <ProcessingMode>Regular</ProcessingMode>
      <Dimensions>
        <Dimension xsi:type="RegularMeasureGroupDimension" dwd:design-time-name="edad52d2-03e2-4c57-8ba2-e8a2ae4937b2">
          <CubeDimensionID>Fact Internet Sales</CubeDimensionID>
          <Attributes>
            <Attribute dwd:design-time-name="f338107b-c92d-473c-93ae-1ae8873a4471">
              <AttributeID>Sales Order Number</AttributeID>
              <KeyColumns>
                <KeyColumn dwd:design-time-name="22e7df45-7187-4332-8f21-9ec382717b2b">
                  <DataType>WChar</DataType>
                  <DataSize>20</DataSize>
                  <Source xsi:type="ColumnBinding" dwd:design-time-name="993180b5-619f-468c-b0b0-f5bca731baf1">
                    <TableID>dbo_FactInternetSalesReason</TableID>
                    <ColumnID>SalesOrderNumber</ColumnID>
                  </Source>
                </KeyColumn>
                <KeyColumn dwd:design-time-name="c4e3a909-304f-4193-86e6-086922993af2">
                  <DataType>UnsignedTinyInt</DataType>
                  <Source xsi:type="ColumnBinding" dwd:design-time-name="52de0f51-bc88-40be-ba4c-3c6c27fc2e34">
                    <TableID>dbo_FactInternetSalesReason</TableID>
                    <ColumnID>SalesOrderLineNumber</ColumnID>
                  </Source>
                </KeyColumn>
              </KeyColumns>
              <Type>Granularity</Type>
            </Attribute>
          </Attributes>
        </Dimension>
        <Dimension xsi:type="ReferenceMeasureGroupDimension" dwd:design-time-name="cab17408-ff9d-4b72-a342-5f9e5093cba1">
          <CubeDimensionID>Dim Promotion</CubeDimensionID>
          <Attributes>
            <Attribute dwd:design-time-name="3d27a75a-24fc-4ec5-bf3f-d0d0ba59d88c">
              <AttributeID>Promotion Key</AttributeID>
              <Type>Granularity</Type>
            </Attribute>
          </Attributes>
          <IntermediateCubeDimensionID>Fact Internet Sales</IntermediateCubeDimensionID>
          <IntermediateGranularityAttributeID>Promotion Key</IntermediateGranularityAttributeID>
          <Materialization>Regular</Materialization>
          <ddl200:ProcessingState>Unprocessed</ddl200:ProcessingState>
        </Dimension>
        <Dimension xsi:type="ReferenceMeasureGroupDimension" dwd:design-time-name="87a160ed-db20-4f43-b609-e73b3e389116">
          <CubeDimensionID>Fact Internet Sales - Order Date</CubeDimensionID>
          <Attributes>
            <Attribute dwd:design-time-name="5c66690e-498a-479a-8eb6-de6951c57112">
              <AttributeID>Date Key</AttributeID>
              <Type>Granularity</Type>
            </Attribute>
          </Attributes>
          <IntermediateCubeDimensionID>Fact Internet Sales</IntermediateCubeDimensionID>
          <IntermediateGranularityAttributeID>Order Date Key</IntermediateGranularityAttributeID>
          <Materialization>Regular</Materialization>
          <ddl200:ProcessingState>Unprocessed</ddl200:ProcessingState>
        </Dimension>
        <Dimension xsi:type="ReferenceMeasureGroupDimension" dwd:design-time-name="b5cf813f-9614-47a2-87d4-6d84f93e94a5">
          <CubeDimensionID>Dim Sales Territory</CubeDimensionID>
          <Attributes>
            <Attribute dwd:design-time-name="5c578ede-231c-434f-a928-27bf3f8d0ff2">
              <AttributeID>Sales Territory Key</AttributeID>
              <Type>Granularity</Type>
            </Attribute>
          </Attributes>
          <IntermediateCubeDimensionID>Fact Internet Sales</IntermediateCubeDimensionID>
          <IntermediateGranularityAttributeID>Sales Territory Key</IntermediateGranularityAttributeID>
          <Materialization>Regular</Materialization>
          <ddl200:ProcessingState>Unprocessed</ddl200:ProcessingState>
        </Dimension>
        <Dimension xsi:type="ReferenceMeasureGroupDimension" dwd:design-time-name="ed7f7ac5-0a28-4349-9b82-8c293cf34afe">
          <CubeDimensionID>Dim Customer</CubeDimensionID>
          <Attributes>
            <Attribute dwd:design-time-name="b879cdb6-7e74-436a-836f-ff5d70164c7e">
              <AttributeID>Customer Key</AttributeID>
              <Type>Granularity</Type>
            </Attribute>
          </Attributes>
          <IntermediateCubeDimensionID>Fact Internet Sales</IntermediateCubeDimensionID>
          <IntermediateGranularityAttributeID>Customer Key</IntermediateGranularityAttributeID>
          <Materialization>Regular</Materialization>
          <ddl200:ProcessingState>Unprocessed</ddl200:ProcessingState>
        </Dimension>
        <Dimension xsi:type="ReferenceMeasureGroupDimension" dwd:design-time-name="4b00f490-c986-49e3-8bc0-ffc9bf46033d">
          <CubeDimensionID>Dim Currency</CubeDimensionID>
          <Attributes>
            <Attribute dwd:design-time-name="7c7dd00c-602a-4661-9479-43346527228e">
              <AttributeID>Currency Key</AttributeID>
              <Type>Granularity</Type>
            </Attribute>
          </Attributes>
          <IntermediateCubeDimensionID>Fact Internet Sales</IntermediateCubeDimensionID>
          <IntermediateGranularityAttributeID>Currency Key</IntermediateGranularityAttributeID>
          <Materialization>Regular</Materialization>
          <ddl200:ProcessingState>Unprocessed</ddl200:ProcessingState>
        </Dimension>
        <Dimension xsi:type="ReferenceMeasureGroupDimension" dwd:design-time-name="4159da6f-753a-47fe-ad34-7c629f48334b">
          <CubeDimensionID>Dim Product</CubeDimensionID>
          <Attributes>
            <Attribute dwd:design-time-name="a4369ad1-85ea-4c6b-a3cb-7bded11114e9">
              <AttributeID>Product Key</AttributeID>
              <Type>Granularity</Type>
            </Attribute>
          </Attributes>
          <IntermediateCubeDimensionID>Fact Internet Sales</IntermediateCubeDimensionID>
          <IntermediateGranularityAttributeID>Product Key</IntermediateGranularityAttributeID>
          <Materialization>Regular</Materialization>
          <ddl200:ProcessingState>Unprocessed</ddl200:ProcessingState>
        </Dimension>
        <Dimension xsi:type="ReferenceMeasureGroupDimension" dwd:design-time-name="7349b24a-5b14-405a-8866-ea73a993de7c">
          <CubeDimensionID>Fact Internet Sales - Ship Date</CubeDimensionID>
          <Attributes>
            <Attribute dwd:design-time-name="1632e110-2b28-46d0-b995-c9da8ccc2843">
              <AttributeID>Date Key</AttributeID>
              <Type>Granularity</Type>
            </Attribute>
          </Attributes>
          <IntermediateCubeDimensionID>Fact Internet Sales</IntermediateCubeDimensionID>
          <IntermediateGranularityAttributeID>Ship Date Key</IntermediateGranularityAttributeID>
          <Materialization>Regular</Materialization>
          <ddl200:ProcessingState>Unprocessed</ddl200:ProcessingState>
        </Dimension>
        <Dimension xsi:type="ReferenceMeasureGroupDimension" dwd:design-time-name="c3030e90-d1c0-4ece-968e-bc72130ac4c1">
          <CubeDimensionID>Fact Internet Sales - Due Date</CubeDimensionID>
          <Attributes>
            <Attribute dwd:design-time-name="2df696cb-72f2-408f-9b63-ad47818c267b">
              <AttributeID>Date Key</AttributeID>
              <Type>Granularity</Type>
            </Attribute>
          </Attributes>
          <IntermediateCubeDimensionID>Fact Internet Sales</IntermediateCubeDimensionID>
          <IntermediateGranularityAttributeID>Due Date Key</IntermediateGranularityAttributeID>
          <Materialization>Regular</Materialization>
          <ddl200:ProcessingState>Unprocessed</ddl200:ProcessingState>
        </Dimension>
      </Dimensions>
      <Partitions />
    </MeasureGroup>
  </MeasureGroups>
  <Source dwd:design-time-name="60adcb61-cec4-41cc-83ad-e0696aeff90e">
    <DataSourceViewID>Adventure Works DW</DataSourceViewID>
  </Source>
</Cube>